%YAML 1.1
%TAG !u! tag:unity3d.com,2011:
--- !u!114 &11400000
MonoBehaviour:
  m_ObjectHideFlags: 0
  m_CorrespondingSourceObject: {fileID: 0}
  m_PrefabInstance: {fileID: 0}
  m_PrefabAsset: {fileID: 0}
  m_GameObject: {fileID: 0}
  m_Enabled: 1
  m_EditorHideFlags: 0
  m_Script: {fileID: 11500000, guid: afff0b3307233ed44bbc81e8be51ea25, type: 3}
  m_Name: A0810FB4-587A-4542-8BC2-51F740956CAB
  m_EditorClassIdentifier: 
  objectName: int_slowmo
  id: 586190280
  guid: A0810FB4-587A-4542-8BC2-51F740956CAB
