%YAML 1.1
%TAG !u! tag:unity3d.com,2011:
--- !u!114 &11400000
MonoBehaviour:
  m_ObjectHideFlags: 0
  m_CorrespondingSourceObject: {fileID: 0}
  m_PrefabInstance: {fileID: 0}
  m_PrefabAsset: {fileID: 0}
  m_GameObject: {fileID: 0}
  m_Enabled: 1
  m_EditorHideFlags: 0
  m_Script: {fileID: 11500000, guid: afff0b3307233ed44bbc81e8be51ea25, type: 3}
  m_Name: E967CAD2-EE50-4EAC-9295-FB09BA6BE7C4
  m_EditorClassIdentifier: 
  objectName: int_occlusion
  id: 558787870
  guid: E967CAD2-EE50-4EAC-9295-FB09BA6BE7C4
