%YAML 1.1
%TAG !u! tag:unity3d.com,2011:
--- !u!114 &11400000
MonoBehaviour:
  m_ObjectHideFlags: 0
  m_CorrespondingSourceObject: {fileID: 0}
  m_PrefabInstance: {fileID: 0}
  m_PrefabAsset: {fileID: 0}
  m_GameObject: {fileID: 0}
  m_Enabled: 1
  m_EditorHideFlags: 0
  m_Script: {fileID: 11500000, guid: afff0b3307233ed44bbc81e8be51ea25, type: 3}
  m_Name: FF588F84-FD4E-4CB5-9BF8-D0523BC8FB40
  m_EditorClassIdentifier: 
  objectName: ext_ammo
  id: 2479973135
  guid: FF588F84-FD4E-4CB5-9BF8-D0523BC8FB40
