%YAML 1.1
%TAG !u! tag:unity3d.com,2011:
--- !u!1 &127974
GameObject:
  m_ObjectHideFlags: 0
  m_CorrespondingSourceObject: {fileID: 0}
  m_PrefabInstance: {fileID: 0}
  m_PrefabAsset: {fileID: 0}
  serializedVersion: 6
  m_Component:
  - component: {fileID: 431300}
  - component: {fileID: 10849134}
  m_Layer: 2
  m_Name: Point light
  m_TagString: Untagged
  m_Icon: {fileID: 0}
  m_NavMeshLayer: 0
  m_StaticEditorFlags: 0
  m_IsActive: 1
--- !u!4 &431300
Transform:
  m_ObjectHideFlags: 0
  m_CorrespondingSourceObject: {fileID: 0}
  m_PrefabInstance: {fileID: 0}
  m_PrefabAsset: {fileID: 0}
  m_GameObject: {fileID: 127974}
  m_LocalRotation: {x: 0.63728094, y: -0.02987191, z: -0.020991534, w: 0.7697662}
  m_LocalPosition: {x: 0.054, y: -0.03, z: 1.26}
  m_LocalScale: {x: 0.26729307, y: 0.40305272, z: 0.2321768}
  m_Children: []
  m_Father: {fileID: 417286}
  m_RootOrder: 4
  m_LocalEulerAnglesHint: {x: 0, y: 0, z: 0}
--- !u!108 &10849134
Light:
  m_ObjectHideFlags: 0
  m_CorrespondingSourceObject: {fileID: 0}
  m_PrefabInstance: {fileID: 0}
  m_PrefabAsset: {fileID: 0}
  m_GameObject: {fileID: 127974}
  m_Enabled: 0
  serializedVersion: 10
  m_Type: 2
  m_Shape: 0
  m_Color: {r: 1, g: 0.7486692, b: 0.35820895, a: 1}
  m_Intensity: 2.6
  m_Range: 3
  m_SpotAngle: 30
  m_InnerSpotAngle: 21.80208
  m_CookieSize: 10
  m_Shadows:
    m_Type: 0
    m_Resolution: -1
    m_CustomResolution: -1
    m_Strength: 1
    m_Bias: 0.05
    m_NormalBias: 0.4
    m_NearPlane: 0.2
    m_CullingMatrixOverride:
      e00: 1
      e01: 0
      e02: 0
      e03: 0
      e10: 0
      e11: 1
      e12: 0
      e13: 0
      e20: 0
      e21: 0
      e22: 1
      e23: 0
      e30: 0
      e31: 0
      e32: 0
      e33: 1
    m_UseCullingMatrixOverride: 0
  m_Cookie: {fileID: 0}
  m_DrawHalo: 0
  m_Flare: {fileID: 0}
  m_RenderMode: 0
  m_CullingMask:
    serializedVersion: 2
    m_Bits: 4294967295
  m_RenderingLayerMask: 1
  m_Lightmapping: 1
  m_LightShadowCasterMode: 0
  m_AreaSize: {x: 1, y: 1}
  m_BounceIntensity: 1
  m_ColorTemperature: 6570
  m_UseColorTemperature: 0
  m_BoundingSphereOverride: {x: 0, y: 0, z: 0, w: 0}
  m_UseBoundingSphereOverride: 0
  m_ShadowRadius: 0
  m_ShadowAngle: 0
--- !u!1 &135154
GameObject:
  m_ObjectHideFlags: 0
  m_CorrespondingSourceObject: {fileID: 0}
  m_PrefabInstance: {fileID: 0}
  m_PrefabAsset: {fileID: 0}
  serializedVersion: 6
  m_Component:
  - component: {fileID: 417286}
  m_Layer: 0
  m_Name: renderer
  m_TagString: Untagged
  m_Icon: {fileID: 0}
  m_NavMeshLayer: 0
  m_StaticEditorFlags: 0
  m_IsActive: 1
--- !u!4 &417286
Transform:
  m_ObjectHideFlags: 0
  m_CorrespondingSourceObject: {fileID: 0}
  m_PrefabInstance: {fileID: 0}
  m_PrefabAsset: {fileID: 0}
  m_GameObject: {fileID: 135154}
  m_LocalRotation: {x: 0.0016794787, y: 0.0012013902, z: 0.7432941, w: 0.66896164}
  m_LocalPosition: {x: -0.0018, y: 0.0506, z: 0.3867}
  m_LocalScale: {x: 0.27453846, y: 0.27453846, z: 0.2250934}
  m_Children:
  - {fileID: 421838}
  - {fileID: 453322}
  - {fileID: 419996}
  - {fileID: 419756}
  - {fileID: 431300}
  - {fileID: 480456}
  m_Father: {fileID: 478760}
  m_RootOrder: 0
  m_LocalEulerAnglesHint: {x: 0, y: 0, z: 0}
--- !u!1 &153606
GameObject:
  m_ObjectHideFlags: 0
  m_CorrespondingSourceObject: {fileID: 0}
  m_PrefabInstance: {fileID: 0}
  m_PrefabAsset: {fileID: 0}
  serializedVersion: 6
  m_Component:
  - component: {fileID: 419996}
  m_Layer: 2
  m_Name: AimReference
  m_TagString: Untagged
  m_Icon: {fileID: 0}
  m_NavMeshLayer: 0
  m_StaticEditorFlags: 0
  m_IsActive: 1
--- !u!4 &419996
Transform:
  m_ObjectHideFlags: 0
  m_CorrespondingSourceObject: {fileID: 0}
  m_PrefabInstance: {fileID: 0}
  m_PrefabAsset: {fileID: 0}
  m_GameObject: {fileID: 153606}
  m_LocalRotation: {x: -0.0000015903419, y: -0.0000016971122, z: -0.7071067, w: 0.7071068}
  m_LocalPosition: {x: 0.016026992, y: 0.0036404736, z: -1.5740136}
  m_LocalScale: {x: 3.6424778, y: 3.6424778, z: 4.4426003}
  m_Children: []
  m_Father: {fileID: 417286}
  m_RootOrder: 2
  m_LocalEulerAnglesHint: {x: 0, y: 0, z: 0}
--- !u!1 &159428
GameObject:
  m_ObjectHideFlags: 0
  m_CorrespondingSourceObject: {fileID: 0}
  m_PrefabInstance: {fileID: 0}
  m_PrefabAsset: {fileID: 0}
  serializedVersion: 6
  m_Component:
  - component: {fileID: 453322}
  m_Layer: 2
  m_Name: leftHandIK
  m_TagString: Untagged
  m_Icon: {fileID: 0}
  m_NavMeshLayer: 0
  m_StaticEditorFlags: 0
  m_IsActive: 1
--- !u!4 &453322
Transform:
  m_ObjectHideFlags: 0
  m_CorrespondingSourceObject: {fileID: 0}
  m_PrefabInstance: {fileID: 0}
  m_PrefabAsset: {fileID: 0}
  m_GameObject: {fileID: 159428}
  m_LocalRotation: {x: 0.731455, y: 0.30543953, z: 0.6091697, w: 0.024341084}
  m_LocalPosition: {x: -0.239, y: 0.244, z: -0.082}
  m_LocalScale: {x: 4.573821, y: 3.7189708, z: 3.642559}
  m_Children: []
  m_Father: {fileID: 417286}
  m_RootOrder: 1
  m_LocalEulerAnglesHint: {x: 0, y: 0, z: 0}
--- !u!1 &173410
GameObject:
  m_ObjectHideFlags: 0
  m_CorrespondingSourceObject: {fileID: 0}
  m_PrefabInstance: {fileID: 0}
  m_PrefabAsset: {fileID: 0}
  serializedVersion: 6
  m_Component:
  - component: {fileID: 419756}
  - component: {fileID: 8248388}
  m_Layer: 2
  m_Name: AudioSource
  m_TagString: Untagged
  m_Icon: {fileID: 0}
  m_NavMeshLayer: 0
  m_StaticEditorFlags: 0
  m_IsActive: 1
--- !u!4 &419756
Transform:
  m_ObjectHideFlags: 0
  m_CorrespondingSourceObject: {fileID: 0}
  m_PrefabInstance: {fileID: 0}
  m_PrefabAsset: {fileID: 0}
  m_GameObject: {fileID: 173410}
  m_LocalRotation: {x: 0.46546915, y: 0.52318436, z: 0.43578228, w: 0.5654294}
  m_LocalPosition: {x: 0.064, y: 0.012, z: 1.281}
  m_LocalScale: {x: 0.290133, y: 0.40305263, z: 0.21389934}
  m_Children: []
  m_Father: {fileID: 417286}
  m_RootOrder: 3
  m_LocalEulerAnglesHint: {x: 0, y: 0, z: 0}
--- !u!82 &8248388
AudioSource:
  m_ObjectHideFlags: 0
  m_CorrespondingSourceObject: {fileID: 0}
  m_PrefabInstance: {fileID: 0}
  m_PrefabAsset: {fileID: 0}
  m_GameObject: {fileID: 173410}
  m_Enabled: 1
  serializedVersion: 4
  OutputAudioMixerGroup: {fileID: 0}
  m_audioClip: {fileID: 0}
  m_PlayOnAwake: 1
  m_Volume: 1
  m_Pitch: 1
  Loop: 0
  Mute: 0
  Spatialize: 0
  SpatializePostEffects: 0
  Priority: 128
  DopplerLevel: 1
  MinDistance: 1
  MaxDistance: 500
  Pan2D: 0
  rolloffMode: 0
  BypassEffects: 0
  BypassListenerEffects: 0
  BypassReverbZones: 0
  rolloffCustomCurve:
    serializedVersion: 2
    m_Curve:
    - serializedVersion: 3
      time: 0
      value: 1
      inSlope: 0
      outSlope: 0
      tangentMode: 0
      weightedMode: 0
      inWeight: 0.33333334
      outWeight: 0.33333334
    - serializedVersion: 3
      time: 1
      value: 0
      inSlope: 0
      outSlope: 0
      tangentMode: 0
      weightedMode: 0
      inWeight: 0.33333334
      outWeight: 0.33333334
    m_PreInfinity: 2
    m_PostInfinity: 2
    m_RotationOrder: 4
  panLevelCustomCurve:
    serializedVersion: 2
    m_Curve:
    - serializedVersion: 3
      time: 0
      value: 1
      inSlope: 0
      outSlope: 0
      tangentMode: 0
      weightedMode: 0
      inWeight: 0.33333334
      outWeight: 0.33333334
    m_PreInfinity: 2
    m_PostInfinity: 2
    m_RotationOrder: 0
  spreadCustomCurve:
    serializedVersion: 2
    m_Curve:
    - serializedVersion: 3
      time: 0
      value: 0
      inSlope: 0
      outSlope: 0
      tangentMode: 0
      weightedMode: 0
      inWeight: 0.33333334
      outWeight: 0.33333334
    m_PreInfinity: 2
    m_PostInfinity: 2
    m_RotationOrder: 0
  reverbZoneMixCustomCurve:
    serializedVersion: 2
    m_Curve:
    - serializedVersion: 3
      time: 0
      value: 1
      inSlope: 0
      outSlope: 0
      tangentMode: 0
      weightedMode: 0
      inWeight: 0.33333334
      outWeight: 0.33333334
    m_PreInfinity: 2
    m_PostInfinity: 2
    m_RotationOrder: 0
--- !u!1 &182814
GameObject:
  m_ObjectHideFlags: 0
  m_CorrespondingSourceObject: {fileID: 0}
  m_PrefabInstance: {fileID: 0}
  m_PrefabAsset: {fileID: 0}
  serializedVersion: 6
  m_Component:
  - component: {fileID: 421838}
  m_Layer: 2
  m_Name: muzzle
  m_TagString: Untagged
  m_Icon: {fileID: 0}
  m_NavMeshLayer: 0
  m_StaticEditorFlags: 0
  m_IsActive: 1
--- !u!4 &421838
Transform:
  m_ObjectHideFlags: 0
  m_CorrespondingSourceObject: {fileID: 0}
  m_PrefabInstance: {fileID: 0}
  m_PrefabAsset: {fileID: 0}
  m_GameObject: {fileID: 182814}
  m_LocalRotation: {x: -0.0000015903419, y: -0.0000016971122, z: -0.7071067, w: 0.7071068}
  m_LocalPosition: {x: 0.114, y: 0.01, z: 0.896}
  m_LocalScale: {x: 3.6424778, y: 3.6424778, z: 4.4426003}
  m_Children: []
  m_Father: {fileID: 417286}
  m_RootOrder: 0
  m_LocalEulerAnglesHint: {x: 0, y: 0, z: 0}
--- !u!1 &191594
GameObject:
  m_ObjectHideFlags: 0
  m_CorrespondingSourceObject: {fileID: 0}
  m_PrefabInstance: {fileID: 0}
  m_PrefabAsset: {fileID: 0}
  serializedVersion: 6
  m_Component:
  - component: {fileID: 480456}
  m_Layer: 2
  m_Name: ScopeTarget
  m_TagString: Untagged
  m_Icon: {fileID: 0}
  m_NavMeshLayer: 0
  m_StaticEditorFlags: 0
  m_IsActive: 1
--- !u!4 &480456
Transform:
  m_ObjectHideFlags: 0
  m_CorrespondingSourceObject: {fileID: 0}
  m_PrefabInstance: {fileID: 0}
  m_PrefabAsset: {fileID: 0}
  m_GameObject: {fileID: 191594}
  m_LocalRotation: {x: -0.58142155, y: 0.19429177, z: -0.7886574, w: 0.04710898}
  m_LocalPosition: {x: 0.269, y: 0.198, z: -1.608}
  m_LocalScale: {x: 4.581436, y: 3.8824654, z: 3.8282037}
  m_Children: []
  m_Father: {fileID: 417286}
  m_RootOrder: 5
  m_LocalEulerAnglesHint: {x: 0, y: 0, z: 0}
--- !u!1 &199424
GameObject:
  m_ObjectHideFlags: 0
  m_CorrespondingSourceObject: {fileID: 0}
  m_PrefabInstance: {fileID: 0}
  m_PrefabAsset: {fileID: 0}
  serializedVersion: 6
  m_Component:
  - component: {fileID: 478760}
  - component: {fileID: 11479324}
  - component: {fileID: 241412925241351278}
  - component: {fileID: 8905363862046988457}
  m_Layer: 2
  m_Name: ShooterWeaponTemplate
  m_TagString: Untagged
  m_Icon: {fileID: 2270504221434485236, guid: 0000000000000000d000000000000000, type: 0}
  m_NavMeshLayer: 0
  m_StaticEditorFlags: 0
  m_IsActive: 1
--- !u!4 &478760
Transform:
  m_ObjectHideFlags: 0
  m_CorrespondingSourceObject: {fileID: 0}
  m_PrefabInstance: {fileID: 0}
  m_PrefabAsset: {fileID: 0}
  m_GameObject: {fileID: 199424}
  m_LocalRotation: {x: 0, y: 0, z: 0, w: 1}
  m_LocalPosition: {x: 0, y: 0, z: 0}
  m_LocalScale: {x: 1, y: 1, z: 1}
  m_Children:
  - {fileID: 417286}
  m_Father: {fileID: 0}
  m_RootOrder: 0
  m_LocalEulerAnglesHint: {x: 0, y: 0, z: 0}
--- !u!114 &11479324
MonoBehaviour:
  m_ObjectHideFlags: 0
  m_CorrespondingSourceObject: {fileID: 0}
  m_PrefabInstance: {fileID: 0}
  m_PrefabAsset: {fileID: 0}
  m_GameObject: {fileID: 199424}
  m_Enabled: 1
  m_EditorHideFlags: 0
  m_Script: {fileID: 11500000, guid: 00bf0dc6ae04cf040b6ba6afb034b3c6, type: 3}
  m_Name: 
  m_EditorClassIdentifier: 
  openCloseEvents: 0
  openCloseWindow: 1
  selectedToolbar: 8
  weaponCategory: Rifle
  shootFrequency: 0.125
  isInfinityAmmo: 0
  ammo: 500
  ignoreTags:
  - Player
  hitLayer:
    serializedVersion: 2
    m_Bits: 32769
  projectile: {fileID: 1000010710861650, guid: 22773fb6a3ebd59429b49fd6e288058e, type: 3}
  muzzle: {fileID: 0}
  projectilesPerShot: 1
  dispersion: 0
  velocity: 380
  damageByDistance: 1
  minDamageDistance: 8
  maxDamageDistance: 50
  minDamage: 15
  maxDamage: 25
  source: {fileID: 0}
  fireClip: {fileID: 8300000, guid: 097e8235e0162d64ba53da9ef4ab8d61, type: 3}
  emptyClip: {fileID: 8300000, guid: 9b2ce00d16b72c34a9b46200421a6def, type: 3}
  testShootEffect: 0
  lightOnShot: {fileID: 0}
  emittShurykenParticle:
  - {fileID: 0}
  - {fileID: 0}
  - {fileID: 0}
  - {fileID: 0}
  - {fileID: 0}
  - {fileID: 0}
  onDestroy:
    m_PersistentCalls:
      m_Calls: []
  onShot:
    m_PersistentCalls:
      m_Calls:
      - m_Target: {fileID: 0}
        m_TargetAssemblyTypeName: RifleShotScr, Assembly-CSharp
        m_MethodName: Shot
        m_Mode: 1
        m_Arguments:
          m_ObjectArgument: {fileID: 0}
          m_ObjectArgumentAssemblyTypeName: UnityEngine.Object, UnityEngine
          m_IntArgument: 0
          m_FloatArgument: 0
          m_StringArgument: 
          m_BoolArgument: 0
        m_CallState: 2
  onEmptyClip:
    m_PersistentCalls:
      m_Calls: []
  onInstantiateProjectile:
    m_PersistentCalls:
      m_Calls: []
  isLeftWeapon: 0
  chargeWeapon: 0
  autoShotOnFinishCharge: 0
  chargeSpeed: 0.1
  chargeDamageMultiplier: 2
  changeVelocityByCharge: 1
  chargeVelocityMultiplier: 2
  automaticWeapon: 1
  reloadTime: 1
  reloadOneByOne: 0
  clipSize: 25
  dontUseReload: 0
  autoReload: 1
  ammoID: 13
  moveSetID: 1
  upperBodyID: 2
  shotID: 2
  reloadID: 2
  equipID: 0
  alignRightHandToAim: 1
  alignRightUpperArmToAim: 1
  raycastAimTarget: 1
  freeIKOptions:
    use: 1
    useOnIdle: 1
    useOnWalk: 1
    useOnRun: 1
    useOnSprint: 0
  strafeIKOptions:
    use: 1
    useOnIdle: 1
    useOnWalk: 1
    useOnRun: 1
    useOnSprint: 1
  useIkAttacking: 0
  disableIkOnShot: 0
  useIKOnAiming: 1
  handIKTarget: {fileID: 0}
  aimReference: {fileID: 0}
  cameraStability: 0.25
  recoilRight: 0.02
  recoilLeft: -0.02
  recoilUp: 1
  reloadSource: {fileID: 0}
  reloadClip: {fileID: 8300000, guid: f4b0865c53d458d49a58b67d16d4b711, type: 3}
  finishReloadClip: {fileID: 0}
  onlyUseScopeUIView: 0
  useUI: 0
  scopeID: 2
  scopeShootAnimationWeight: 0
  scopeZoom: 0
  backGroundScopeZoom: 30
  customAimCameraState: 
  customScopeCameraState: ScopeAiming
  scopeTarget: {fileID: 0}
  zoomScopeCamera: {fileID: 0}
  keepScopeCameraRotationZ: 1
  isAiming: 1
  usingScope: 1
  onReload:
    m_PersistentCalls:
      m_Calls: []
  onCancelReload:
    m_PersistentCalls:
      m_Calls: []
  onFinishReload:
    m_PersistentCalls:
      m_Calls: []
  onFinishAmmo:
    m_PersistentCalls:
      m_Calls: []
  onEnableAim:
    m_PersistentCalls:
      m_Calls:
      - m_Target: {fileID: 0}
        m_TargetAssemblyTypeName: 
        m_MethodName: PlayOneShot
        m_Mode: 2
        m_Arguments:
          m_ObjectArgument: {fileID: 8300000, guid: a3c47d05e2db5d2469c40c5304cdb283, type: 3}
          m_ObjectArgumentAssemblyTypeName: UnityEngine.AudioClip, UnityEngine
          m_IntArgument: 0
          m_FloatArgument: 0
          m_StringArgument: 
          m_BoolArgument: 0
        m_CallState: 2
  onDisableAim:
    m_PersistentCalls:
      m_Calls:
      - m_Target: {fileID: 0}
        m_TargetAssemblyTypeName: 
        m_MethodName: PlayOneShot
        m_Mode: 2
        m_Arguments:
          m_ObjectArgument: {fileID: 8300000, guid: e7d53cc2fd45cce47a9dd9b17b7668a6, type: 3}
          m_ObjectArgumentAssemblyTypeName: UnityEngine.AudioClip, UnityEngine
          m_IntArgument: 0
          m_FloatArgument: 0
          m_StringArgument: 
          m_BoolArgument: 0
        m_CallState: 2
  onEnableScope:
    m_PersistentCalls:
      m_Calls:
      - m_Target: {fileID: 0}
        m_TargetAssemblyTypeName: 
        m_MethodName: SetActive
        m_Mode: 6
        m_Arguments:
          m_ObjectArgument: {fileID: 0}
          m_ObjectArgumentAssemblyTypeName: UnityEngine.Object, UnityEngine
          m_IntArgument: 0
          m_FloatArgument: 0
          m_StringArgument: 
          m_BoolArgument: 1
        m_CallState: 2
      - m_Target: {fileID: 0}
        m_TargetAssemblyTypeName: 
        m_MethodName: SetActive
        m_Mode: 6
        m_Arguments:
          m_ObjectArgument: {fileID: 0}
          m_ObjectArgumentAssemblyTypeName: UnityEngine.Object, UnityEngine
          m_IntArgument: 0
          m_FloatArgument: 0
          m_StringArgument: 
          m_BoolArgument: 1
        m_CallState: 2
  onDisableScope:
    m_PersistentCalls:
      m_Calls:
      - m_Target: {fileID: 0}
        m_TargetAssemblyTypeName: 
        m_MethodName: SetActive
        m_Mode: 6
        m_Arguments:
          m_ObjectArgument: {fileID: 0}
          m_ObjectArgumentAssemblyTypeName: UnityEngine.Object, UnityEngine
          m_IntArgument: 0
          m_FloatArgument: 0
          m_StringArgument: 
          m_BoolArgument: 0
        m_CallState: 2
      - m_Target: {fileID: 0}
        m_TargetAssemblyTypeName: 
        m_MethodName: SetActive
        m_Mode: 6
        m_Arguments:
          m_ObjectArgument: {fileID: 0}
          m_ObjectArgumentAssemblyTypeName: UnityEngine.Object, UnityEngine
          m_IntArgument: 0
          m_FloatArgument: 0
          m_StringArgument: 
          m_BoolArgument: 0
        m_CallState: 2
  onFullPower:
    m_PersistentCalls:
      m_Calls: []
  onDisable:
    m_PersistentCalls:
      m_Calls: []
  onPowerChargerChanged:
    m_PersistentCalls:
      m_Calls: []
  root: {fileID: 0}
  isSecundaryWeapon: 0
--- !u!114 &241412925241351278
MonoBehaviour:
  m_ObjectHideFlags: 0
  m_CorrespondingSourceObject: {fileID: 0}
  m_PrefabInstance: {fileID: 0}
  m_PrefabAsset: {fileID: 0}
  m_GameObject: {fileID: 199424}
  m_Enabled: 1
  m_EditorHideFlags: 0
  m_Script: {fileID: 11500000, guid: 393a4106eb54f894a900c48422883d15, type: 3}
  m_Name: 
  m_EditorClassIdentifier: 
  openCloseEvents: 0
  openCloseWindow: 0
  selectedToolbar: 0
  getAnimatorInParent: 0
  animatorEvents: []
--- !u!114 &8905363862046988457
MonoBehaviour:
  m_ObjectHideFlags: 0
  m_CorrespondingSourceObject: {fileID: 0}
  m_PrefabInstance: {fileID: 0}
  m_PrefabAsset: {fileID: 0}
  m_GameObject: {fileID: 199424}
  m_Enabled: 1
  m_EditorHideFlags: 0
  m_Script: {fileID: 11500000, guid: b37cb9a443aef1842ae80a6a984cbe35, type: 3}
  m_Name: 
  m_EditorClassIdentifier: 
  openCloseEvents: 1
  openCloseWindow: 0
  selectedToolbar: 0
  onEquip:
    m_PersistentCalls:
      m_Calls: []
  onUnequip:
    m_PersistentCalls:
      m_Calls: []
  referenceItem: {fileID: 0}
