%YAML 1.1
%TAG !u! tag:unity3d.com,2011:
--- !u!114 &11400000
MonoBehaviour:
  m_ObjectHideFlags: 0
  m_CorrespondingSourceObject: {fileID: 0}
  m_PrefabInstance: {fileID: 0}
  m_PrefabAsset: {fileID: 0}
  m_GameObject: {fileID: 0}
  m_Enabled: 1
  m_EditorHideFlags: 0
  m_Script: {fileID: 11500000, guid: d6e2a0b783bbfe2459273b29dcdcc5c2, type: 3}
  m_Name: 2F2D53F2-DACC-408E-8B88-98B1B52A26D6
  m_EditorClassIdentifier: 
  objectName: Acoustic_Banner
  id: 4168643977
  guid: 2F2D53F2-DACC-408E-8B88-98B1B52A26D6
