%YAML 1.1
%TAG !u! tag:unity3d.com,2011:
--- !u!114 &11400000
MonoBehaviour:
  m_ObjectHideFlags: 0
  m_CorrespondingSourceObject: {fileID: 0}
  m_PrefabInstance: {fileID: 0}
  m_PrefabAsset: {fileID: 0}
  m_GameObject: {fileID: 0}
  m_Enabled: 1
  m_EditorHideFlags: 0
  m_Script: {fileID: 11500000, guid: d6e2a0b783bbfe2459273b29dcdcc5c2, type: 3}
  m_Name: C5933731-001A-4AB4-98DD-9B033A8C8EAB
  m_EditorClassIdentifier: 
  objectName: Mountain
  id: 513139656
  guid: C5933731-001A-4AB4-98DD-9B033A8C8EAB
