%YAML 1.1
%TAG !u! tag:unity3d.com,2011:
--- !u!114 &11400000
MonoBehaviour:
  m_ObjectHideFlags: 0
  m_CorrespondingSourceObject: {fileID: 0}
  m_PrefabInstance: {fileID: 0}
  m_PrefabAsset: {fileID: 0}
  m_GameObject: {fileID: 0}
  m_Enabled: 1
  m_EditorHideFlags: 0
  m_Script: {fileID: 11500000, guid: 4eedcb43bc538a648b5a0265fb2deb58, type: 3}
  m_Name: 0FAF0980-4475-4C04-8877-5F0AF0B4FFE0
  m_EditorClassIdentifier: 
  objectName: Play_ShotgunLoad
  id: 1699959744
  guid: 0FAF0980-4475-4C04-8877-5F0AF0B4FFE0
