%YAML 1.1
%TAG !u! tag:unity3d.com,2011:
--- !u!114 &11400000
MonoBehaviour:
  m_ObjectHideFlags: 0
  m_CorrespondingSourceObject: {fileID: 0}
  m_PrefabInstance: {fileID: 0}
  m_PrefabAsset: {fileID: 0}
  m_GameObject: {fileID: 0}
  m_Enabled: 1
  m_EditorHideFlags: 0
  m_Script: {fileID: 11500000, guid: 4eedcb43bc538a648b5a0265fb2deb58, type: 3}
  m_Name: 40548A00-510C-4637-B800-A03C2F52B0D2
  m_EditorClassIdentifier: 
  objectName: Play_AssaultReload
  id: 2319339896
  guid: 40548A00-510C-4637-B800-A03C2F52B0D2
