%YAML 1.1
%TAG !u! tag:unity3d.com,2011:
--- !u!114 &11400000
MonoBehaviour:
  m_ObjectHideFlags: 0
  m_CorrespondingSourceObject: {fileID: 0}
  m_PrefabInstance: {fileID: 0}
  m_PrefabAsset: {fileID: 0}
  m_GameObject: {fileID: 0}
  m_Enabled: 1
  m_EditorHideFlags: 0
  m_Script: {fileID: 11500000, guid: 4eedcb43bc538a648b5a0265fb2deb58, type: 3}
  m_Name: 88A30D8B-FBF0-49BF-BD2C-F952FCCE7279
  m_EditorClassIdentifier: 
  objectName: Play_CarCollision
  id: 1463024416
  guid: 88A30D8B-FBF0-49BF-BD2C-F952FCCE7279
