%YAML 1.1
%TAG !u! tag:unity3d.com,2011:
--- !u!114 &11400000
MonoBehaviour:
  m_ObjectHideFlags: 0
  m_CorrespondingSourceObject: {fileID: 0}
  m_PrefabInstance: {fileID: 0}
  m_PrefabAsset: {fileID: 0}
  m_GameObject: {fileID: 0}
  m_Enabled: 1
  m_EditorHideFlags: 0
  m_Script: {fileID: 11500000, guid: 4eedcb43bc538a648b5a0265fb2deb58, type: 3}
  m_Name: 90285D31-1ECD-4E01-83E3-8C17A7DB8F00
  m_EditorClassIdentifier: 
  objectName: Play_test_gun
  id: 2940530245
  guid: 90285D31-1ECD-4E01-83E3-8C17A7DB8F00
