%YAML 1.1
%TAG !u! tag:unity3d.com,2011:
--- !u!114 &11400000
MonoBehaviour:
  m_ObjectHideFlags: 0
  m_CorrespondingSourceObject: {fileID: 0}
  m_PrefabInstance: {fileID: 0}
  m_PrefabAsset: {fileID: 0}
  m_GameObject: {fileID: 0}
  m_Enabled: 1
  m_EditorHideFlags: 0
  m_Script: {fileID: 11500000, guid: 4eedcb43bc538a648b5a0265fb2deb58, type: 3}
  m_Name: FFA5B50E-4B8E-45AB-9264-F8B3161CF271
  m_EditorClassIdentifier: 
  objectName: heartbeat_start
  id: 201282074
  guid: FFA5B50E-4B8E-45AB-9264-F8B3161CF271
