%YAML 1.1
%TAG !u! tag:unity3d.com,2011:
--- !u!114 &11400000
MonoBehaviour:
  m_ObjectHideFlags: 0
  m_CorrespondingSourceObject: {fileID: 0}
  m_PrefabInstance: {fileID: 0}
  m_PrefabAsset: {fileID: 0}
  m_GameObject: {fileID: 0}
  m_Enabled: 1
  m_EditorHideFlags: 0
  m_Script: {fileID: 11500000, guid: cb2afe458380a5a4aafc1781a445552d, type: 3}
  m_Name: Character@IKAdjustList
  m_EditorClassIdentifier: 
  ikTargetPositionOffsetR: {x: 0, y: 0, z: 0}
  ikTargetRotationOffsetR: {x: 0, y: 0, z: 0}
  ikTargetPositionOffsetL: {x: 0, y: 0, z: 0}
  ikTargetRotationOffsetL: {x: 0, y: 0, z: 0}
  weaponIKAdjusts:
  - {fileID: 11400000, guid: b01dfdb6c6dca8843beb7a6149c0654f, type: 2}
  - {fileID: 0}
  - {fileID: 11400000, guid: 18517bc044cd3934fa59e3cb1f836b50, type: 2}
  - {fileID: 11400000, guid: 246da8d5db14e3948bf915f2e42f0b4a, type: 2}
  - {fileID: 11400000, guid: d956558e0a1f61d4d97a6ff778d36db3, type: 2}
