%YAML 1.1
%TAG !u! tag:unity3d.com,2011:
--- !u!114 &11400000
MonoBehaviour:
  m_ObjectHideFlags: 0
  m_CorrespondingSourceObject: {fileID: 0}
  m_PrefabInstance: {fileID: 0}
  m_PrefabAsset: {fileID: 0}
  m_GameObject: {fileID: 0}
  m_Enabled: 1
  m_EditorHideFlags: 0
  m_Script: {fileID: 11500000, guid: d054d6e948083b0469b2ff301c0adbab, type: 3}
  m_Name: Character@Pistol
  m_EditorClassIdentifier: 
  weaponCategories:
  - Pistol
  ikAdjustsLeft:
  - name: Standing
    weaponHandOffset:
      position: {x: 0, y: 0, z: 0}
      eulerAngles: {x: 0, y: 0, z: 0}
    weaponHintOffset:
      position: {x: 0, y: 0, z: 0}
      eulerAngles: {x: 0, y: 0, z: 0}
    supportHandOffset:
      position: {x: 0, y: 0, z: 0}
      eulerAngles: {x: 0, y: 0, z: 0}
    supportHintOffset:
      position: {x: 0, y: 0, z: 0}
      eulerAngles: {x: 0, y: 0, z: 0}
    spineOffset:
      spine: {x: 0, y: 0}
      head: {x: 0, y: 0}
  - name: StandingAiming
    weaponHandOffset:
      position: {x: 0, y: 0, z: 0}
      eulerAngles: {x: 0, y: 0, z: 0}
    weaponHintOffset:
      position: {x: 0, y: 0, z: 0}
      eulerAngles: {x: 0, y: 0, z: 0}
    supportHandOffset:
      position: {x: 0, y: 0, z: 0}
      eulerAngles: {x: 0, y: 0, z: 0}
    supportHintOffset:
      position: {x: 0, y: 0, z: 0}
      eulerAngles: {x: 0, y: 0, z: 0}
    spineOffset:
      spine: {x: 0, y: 0}
      head: {x: 0, y: 0}
  - name: Crouching
    weaponHandOffset:
      position: {x: 0, y: 0, z: 0}
      eulerAngles: {x: 0, y: 0, z: 0}
    weaponHintOffset:
      position: {x: 0, y: 0, z: 0}
      eulerAngles: {x: 0, y: 0, z: 0}
    supportHandOffset:
      position: {x: 0, y: 0, z: 0}
      eulerAngles: {x: 0, y: 0, z: 0}
    supportHintOffset:
      position: {x: 0, y: 0, z: 0}
      eulerAngles: {x: 0, y: 0, z: 0}
    spineOffset:
      spine: {x: 0, y: 0}
      head: {x: 0, y: 0}
  - name: CrouchingAiming
    weaponHandOffset:
      position: {x: 0, y: 0, z: 0}
      eulerAngles: {x: 0, y: 0, z: 0}
    weaponHintOffset:
      position: {x: 0, y: 0, z: 0}
      eulerAngles: {x: 0, y: 0, z: 0}
    supportHandOffset:
      position: {x: 0, y: 0, z: 0}
      eulerAngles: {x: 0, y: 0, z: 0}
    supportHintOffset:
      position: {x: 0, y: 0, z: 0}
      eulerAngles: {x: 0, y: 0, z: 0}
    spineOffset:
      spine: {x: 0, y: 0}
      head: {x: 0, y: 0}
  ikAdjustsRight:
  - name: Standing
    weaponHandOffset:
      position: {x: 0, y: 0, z: 0}
      eulerAngles: {x: -0, y: 0, z: 0}
    weaponHintOffset:
      position: {x: 0, y: 0, z: 0}
      eulerAngles: {x: -0, y: 0, z: 0}
    supportHandOffset:
      position: {x: 0.002633853, y: 0.03364507, z: 0.060956236}
      eulerAngles: {x: 357.645, y: 11.21453, z: 191.55663}
    supportHintOffset:
      position: {x: 0, y: 0, z: 0}
      eulerAngles: {x: -0, y: 0, z: 0}
    spineOffset:
      spine: {x: 0, y: 0}
      head: {x: 0, y: 0}
  - name: StandingAiming
    weaponHandOffset:
      position: {x: 0, y: 0, z: 0}
      eulerAngles: {x: -0, y: 0, z: 0}
    weaponHintOffset:
      position: {x: 0, y: 0, z: 0}
      eulerAngles: {x: -0, y: 0, z: 0}
    supportHandOffset:
      position: {x: 0.027140798, y: 0.00095428154, z: 0.030352036}
      eulerAngles: {x: 359.98672, y: 0.050649643, z: 234.26106}
    supportHintOffset:
      position: {x: 0, y: 0, z: 0}
      eulerAngles: {x: -0, y: 0, z: 0}
    spineOffset:
      spine: {x: 0, y: 0}
      head: {x: 0, y: 0}
  - name: Crouching
    weaponHandOffset:
      position: {x: 0, y: 0, z: 0}
      eulerAngles: {x: 0, y: 0, z: 0}
    weaponHintOffset:
      position: {x: 0, y: 0, z: 0}
      eulerAngles: {x: 0, y: 0, z: 0}
    supportHandOffset:
      position: {x: 0, y: 0, z: 0}
      eulerAngles: {x: 0, y: 0, z: 0}
    supportHintOffset:
      position: {x: 0, y: 0, z: 0}
      eulerAngles: {x: 0, y: 0, z: 0}
    spineOffset:
      spine: {x: 0, y: 0}
      head: {x: 0, y: 0}
  - name: CrouchingAiming
    weaponHandOffset:
      position: {x: 0, y: 0, z: 0}
      eulerAngles: {x: 0, y: 0, z: 0}
    weaponHintOffset:
      position: {x: 0, y: 0, z: 0}
      eulerAngles: {x: 0, y: 0, z: 0}
    supportHandOffset:
      position: {x: 0, y: 0, z: 0}
      eulerAngles: {x: 0, y: 0, z: 0}
    supportHintOffset:
      position: {x: 0, y: 0, z: 0}
      eulerAngles: {x: 0, y: 0, z: 0}
    spineOffset:
      spine: {x: 0, y: 0}
      head: {x: 0, y: 0}
  standingRight:
    name: Standing
    weaponHandOffset:
      position: {x: 0, y: 0, z: 0}
      eulerAngles: {x: 0, y: 0, z: 0}
    weaponHintOffset:
      position: {x: 0, y: 0, z: 0}
      eulerAngles: {x: 0, y: 0, z: 0}
    supportHandOffset:
      position: {x: 0, y: 0, z: 0}
      eulerAngles: {x: 0, y: 0, z: 0}
    supportHintOffset:
      position: {x: 0, y: 0, z: 0}
      eulerAngles: {x: 0, y: 0, z: 0}
    spineOffset:
      spine: {x: 0, y: 0}
      head: {x: 0, y: 0}
  standingAimingRight:
    name: StandingAiming
    weaponHandOffset:
      position: {x: 0, y: 0, z: 0}
      eulerAngles: {x: 0, y: 0, z: 0}
    weaponHintOffset:
      position: {x: 0, y: 0, z: 0}
      eulerAngles: {x: 0, y: 0, z: 0}
    supportHandOffset:
      position: {x: 0, y: 0, z: 0}
      eulerAngles: {x: 0, y: 0, z: 0}
    supportHintOffset:
      position: {x: 0, y: 0, z: 0}
      eulerAngles: {x: 0, y: 0, z: 0}
    spineOffset:
      spine: {x: 0, y: 0}
      head: {x: 0, y: 0}
  standingLeft:
    name: Standing
    weaponHandOffset:
      position: {x: 0, y: 0, z: 0}
      eulerAngles: {x: 0, y: 0, z: 0}
    weaponHintOffset:
      position: {x: 0, y: 0, z: 0}
      eulerAngles: {x: 0, y: 0, z: 0}
    supportHandOffset:
      position: {x: 0, y: 0, z: 0}
      eulerAngles: {x: 0, y: 0, z: 0}
    supportHintOffset:
      position: {x: 0, y: 0, z: 0}
      eulerAngles: {x: 0, y: 0, z: 0}
    spineOffset:
      spine: {x: 0, y: 0}
      head: {x: 0, y: 0}
  standingAimingLeft:
    name: StandingAiming
    weaponHandOffset:
      position: {x: 0, y: 0, z: 0}
      eulerAngles: {x: 0, y: 0, z: 0}
    weaponHintOffset:
      position: {x: 0, y: 0, z: 0}
      eulerAngles: {x: 0, y: 0, z: 0}
    supportHandOffset:
      position: {x: 0, y: 0, z: 0}
      eulerAngles: {x: 0, y: 0, z: 0}
    supportHintOffset:
      position: {x: 0, y: 0, z: 0}
      eulerAngles: {x: 0, y: 0, z: 0}
    spineOffset:
      spine: {x: 0, y: 0}
      head: {x: 0, y: 0}
  crouchingRight:
    name: Crouching
    weaponHandOffset:
      position: {x: 0, y: 0, z: 0}
      eulerAngles: {x: 0, y: 0, z: 0}
    weaponHintOffset:
      position: {x: 0, y: 0, z: 0}
      eulerAngles: {x: 0, y: 0, z: 0}
    supportHandOffset:
      position: {x: 0, y: 0, z: 0}
      eulerAngles: {x: 0, y: 0, z: 0}
    supportHintOffset:
      position: {x: 0, y: 0, z: 0}
      eulerAngles: {x: 0, y: 0, z: 0}
    spineOffset:
      spine: {x: 0, y: 0}
      head: {x: 0, y: 0}
  crouchingAimingRight:
    name: CrouchingAiming
    weaponHandOffset:
      position: {x: 0, y: 0, z: 0}
      eulerAngles: {x: 0, y: 0, z: 0}
    weaponHintOffset:
      position: {x: 0, y: 0, z: 0}
      eulerAngles: {x: 0, y: 0, z: 0}
    supportHandOffset:
      position: {x: 0, y: 0, z: 0}
      eulerAngles: {x: 0, y: 0, z: 0}
    supportHintOffset:
      position: {x: 0, y: 0, z: 0}
      eulerAngles: {x: 0, y: 0, z: 0}
    spineOffset:
      spine: {x: 0, y: 0}
      head: {x: 0, y: 0}
  crouchingLeft:
    name: Crouching
    weaponHandOffset:
      position: {x: 0, y: 0, z: 0}
      eulerAngles: {x: 0, y: 0, z: 0}
    weaponHintOffset:
      position: {x: 0, y: 0, z: 0}
      eulerAngles: {x: 0, y: 0, z: 0}
    supportHandOffset:
      position: {x: 0, y: 0, z: 0}
      eulerAngles: {x: 0, y: 0, z: 0}
    supportHintOffset:
      position: {x: 0, y: 0, z: 0}
      eulerAngles: {x: 0, y: 0, z: 0}
    spineOffset:
      spine: {x: 0, y: 0}
      head: {x: 0, y: 0}
  crouchingAimingLeft:
    name: CrouchingAiming
    weaponHandOffset:
      position: {x: 0, y: 0, z: 0}
      eulerAngles: {x: 0, y: 0, z: 0}
    weaponHintOffset:
      position: {x: 0, y: 0, z: 0}
      eulerAngles: {x: 0, y: 0, z: 0}
    supportHandOffset:
      position: {x: 0, y: 0, z: 0}
      eulerAngles: {x: 0, y: 0, z: 0}
    supportHintOffset:
      position: {x: 0, y: 0, z: 0}
      eulerAngles: {x: 0, y: 0, z: 0}
    spineOffset:
      spine: {x: 0, y: 0}
      head: {x: 0, y: 0}
