%YAML 1.1
%TAG !u! tag:unity3d.com,2011:
--- !u!114 &11400000
MonoBehaviour:
  m_ObjectHideFlags: 0
  m_CorrespondingSourceObject: {fileID: 0}
  m_PrefabInstance: {fileID: 0}
  m_PrefabAsset: {fileID: 0}
  m_GameObject: {fileID: 0}
  m_Enabled: 1
  m_EditorHideFlags: 0
  m_Script: {fileID: 11500000, guid: 490e125637e14f6469425360f499f89e, type: 3}
  m_Name: 856CC5D8-3F07-4D10-855E-24937C19B091
  m_EditorClassIdentifier: 
  objectName: outdoor
  id: 144697359
  guid: 856CC5D8-3F07-4D10-855E-24937C19B091
  WwiseSwitchGroupReference: {fileID: 11400000, guid: a743d87d01d0c554ba8e79478f4b0717, type: 2}
